{
  "capabilities": [
    "interactive",
    "javascript"
  ],
  "architecture": "html",
  "license": "Apache 2.0",
  "install": [
    {
      "source": "https://github.com/mozilla/pdf.js",
      "to": "src",
      "revision": "12a93971fee6e19f941661f2912d7a7613f662ab",
      "type": "git",
      "name": "pdf.js Source Code",
      "id": "8e230fe8-17c0-11e6-b330-001fd05bb228"
    }
  ],
  "views": [
    {
      "type": "application/pdf"
    }
  ],
  "id": "276884b8-17c0-11e6-a964-001fd05bb228",
  "type": "viewer",
  "name": "pdf.js",
  "file": "viewer/viewer.html",
  "authors": [
    "Mozilla"
  ]
}
